[gd_scene load_steps=4 format=2]

[ext_resource path="res://img/palamento.png" type="Texture" id=1]
[ext_resource path="res://scenes/cena00_generica.gd" type="Script" id=2]
[ext_resource path="res://Songs/marseillaise.wav" type="AudioStream" id=3]

[node name="TextureRect" type="TextureRect" index="0"]

anchor_left = 0.0
anchor_top = 0.0
anchor_right = 0.0
anchor_bottom = 0.0
margin_right = 640.0
margin_bottom = 480.0
rect_pivot_offset = Vector2( 0, 0 )
rect_clip_content = false
mouse_filter = 1
mouse_default_cursor_shape = 0
size_flags_horizontal = 1
size_flags_vertical = 1
texture = ExtResource( 1 )
stretch_mode = 0
script = ExtResource( 2 )

[node name="btn_menu" type="Button" parent="." index="0"]

anchor_left = 0.0
anchor_top = 0.0
anchor_right = 0.0
anchor_bottom = 0.0
margin_left = 9.0
margin_top = 13.0
margin_right = 83.0
margin_bottom = 33.0
rect_pivot_offset = Vector2( 0, 0 )
rect_clip_content = false
focus_mode = 2
mouse_filter = 0
mouse_default_cursor_shape = 0
size_flags_horizontal = 1
size_flags_vertical = 1
toggle_mode = false
enabled_focus_mode = 2
shortcut = null
group = null
text = "Menu"
flat = false
align = 1

[node name="Label" type="Label" parent="." index="1"]

anchor_left = 0.0
anchor_top = 0.0
anchor_right = 0.0
anchor_bottom = 0.0
margin_left = 11.0
margin_top = 351.0
margin_right = 371.0
margin_bottom = 433.0
rect_scale = Vector2( 1.3, 1.3 )
rect_pivot_offset = Vector2( 0, 0 )
rect_clip_content = false
mouse_filter = 2
mouse_default_cursor_shape = 0
size_flags_horizontal = 1
size_flags_vertical = 4
text = "<Texto generico>"
percent_visible = 1.0
lines_skipped = 0
max_lines_visible = -1

[node name="next" type="Button" parent="." index="2"]

anchor_left = 0.0
anchor_top = 0.0
anchor_right = 0.0
anchor_bottom = 0.0
margin_left = 560.0
margin_top = 450.0
margin_right = 622.0
margin_bottom = 470.0
rect_pivot_offset = Vector2( 0, 0 )
rect_clip_content = false
focus_mode = 2
mouse_filter = 0
mouse_default_cursor_shape = 0
size_flags_horizontal = 1
size_flags_vertical = 1
toggle_mode = false
enabled_focus_mode = 2
shortcut = null
group = null
text = "Avançar"
flat = false
align = 1

[node name="sound" type="AudioStreamPlayer" parent="." index="3"]

stream = ExtResource( 3 )
volume_db = 0.0
pitch_scale = 1.0
autoplay = true
mix_target = 0
bus = "Master"

[connection signal="pressed" from="btn_menu" to="." method="_on_btn_menu_pressed"]

[connection signal="pressed" from="next" to="." method="_on_next_pressed"]


