[gd_scene format=2]

[node name="RichTextLabel" type="RichTextLabel"]

anchor_left = 0.0
anchor_top = 0.0
anchor_right = 0.0
anchor_bottom = 0.0
margin_left = 16.0
margin_top = 359.0
margin_right = 621.0
margin_bottom = 434.0
rect_pivot_offset = Vector2( 0, 0 )
rect_clip_content = true
mouse_filter = 0
mouse_default_cursor_shape = 0
size_flags_horizontal = 1
size_flags_vertical = 1
bbcode_enabled = true
bbcode_text = "Em setembro de 1792, uma onda de execuções varreu principalmente a cidade de Paris. Não se sabe ao certo os motivos que levaram essas mortes, mas entende-se esses eventos enquanto sequências daqueles iniciados em agosto do mesmo ano. 
Visualmente horrorizados com os rumos do que chamaram de desordem e violência, os girondistas propuseram a criação de uma comissão independente que apresentasse relatórios sobre os eventos. 

Deputado, qual sua opinião em relação a criação de tal comitê de averiguação?"
visible_characters = -1
percent_visible = 1.0
meta_underlined = true
tab_size = 4
text = "Em setembro de 1792, uma onda de execuções varreu principalmente a cidade de Paris. Não se sabe ao certo os motivos que levaram essas mortes, mas entende-se esses eventos enquanto sequências daqueles iniciados em agosto do mesmo ano. 
Visualmente horrorizados com os rumos do que chamaram de desordem e violência, os girondistas propuseram a criação de uma comissão independente que apresentasse relatórios sobre os eventos. 

Deputado, qual sua opinião em relação a criação de tal comitê de averiguação?"
scroll_active = true
scroll_following = false
selection_enabled = false
override_selected_font_color = false
_sections_unfolded = [ "BBCode", "Material", "Visibility", "custom_colors", "custom_styles" ]


