[gd_scene load_steps=2 format=2]

[ext_resource path="res://Songs/marseillaise.wav" type="AudioStream" id=1]

[node name="AudioStreamPlayer" type="AudioStreamPlayer" index="0"]

stream = ExtResource( 1 )
volume_db = 0.0
pitch_scale = 1.0
autoplay = true
mix_target = 0
bus = "Master"
_sections_unfolded = [ "Pause" ]


