[gd_scene load_steps=3 format=2]

[ext_resource path="res://img/palamento.png" type="Texture" id=1]
[ext_resource path="res://scenes/perguntas/scripts/cena06.gd" type="Script" id=2]

[node name="cena06" type="TextureRect"]

anchor_left = 0.0
anchor_top = 0.0
anchor_right = 0.0
anchor_bottom = 0.0
margin_right = 640.0
margin_bottom = 480.0
rect_pivot_offset = Vector2( 0, 0 )
rect_clip_content = false
mouse_filter = 1
mouse_default_cursor_shape = 0
size_flags_horizontal = 1
size_flags_vertical = 1
texture = ExtResource( 1 )
stretch_mode = 0
script = ExtResource( 2 )

[node name="btn_menu" type="Button" parent="." index="0"]

anchor_left = 0.0
anchor_top = 0.0
anchor_right = 0.0
anchor_bottom = 0.0
margin_left = 9.0
margin_top = 13.0
margin_right = 83.0
margin_bottom = 33.0
rect_pivot_offset = Vector2( 0, 0 )
rect_clip_content = false
focus_mode = 2
mouse_filter = 0
mouse_default_cursor_shape = 0
size_flags_horizontal = 1
size_flags_vertical = 1
toggle_mode = false
enabled_focus_mode = 2
shortcut = null
group = null
text = "Menu"
flat = false
align = 1

[node name="next" type="Button" parent="." index="1"]

anchor_left = 0.0
anchor_top = 0.0
anchor_right = 0.0
anchor_bottom = 0.0
margin_left = 560.0
margin_top = 450.0
margin_right = 622.0
margin_bottom = 470.0
rect_pivot_offset = Vector2( 0, 0 )
rect_clip_content = false
focus_mode = 2
mouse_filter = 0
mouse_default_cursor_shape = 0
size_flags_horizontal = 1
size_flags_vertical = 1
toggle_mode = false
enabled_focus_mode = 2
shortcut = null
group = null
text = "Avançar"
flat = false
align = 1

[node name="option" type="OptionButton" parent="." index="2"]

anchor_left = 0.0
anchor_top = 0.0
anchor_right = 0.0
anchor_bottom = 0.0
margin_left = 20.0
margin_top = 450.0
margin_right = 198.0
margin_bottom = 470.0
rect_pivot_offset = Vector2( 0, 0 )
rect_clip_content = false
focus_mode = 2
mouse_filter = 0
mouse_default_cursor_shape = 0
size_flags_horizontal = 1
size_flags_vertical = 1
toggle_mode = false
action_mode = 0
enabled_focus_mode = 2
shortcut = null
group = null
flat = false
clip_text = true
align = 0
items = [  ]
selected = -1

[node name="RichTextLabel" type="RichTextLabel" parent="." index="3"]

anchor_left = 0.0
anchor_top = 0.0
anchor_right = 0.0
anchor_bottom = 0.0
margin_left = 16.0
margin_top = 359.0
margin_right = 621.0
margin_bottom = 434.0
rect_pivot_offset = Vector2( 0, 0 )
rect_clip_content = true
mouse_filter = 0
mouse_default_cursor_shape = 0
size_flags_horizontal = 1
size_flags_vertical = 1
bbcode_enabled = true
bbcode_text = "Após os eventos de agosto, foram descobertas correspondências de Luís XVI com outros príncipes europeus. A trajetória revolucionária francesa assustava aqueles que permaneciam sob o modelo absolutista de governo, que já mostrava sinais de enfraquecimento. 
Em um relatório da Assembléia Legislativa, o rei francês fora acusado de traição e de tentar abafar a Revolução. Mais tarde, descobrira-se também os planos da Corte de fortalecer os poderes constitucionais do rei, de restaurar o Antigo Regime e a aristocracia, bem como outros arranjos políticos visando a volta do poder político de Luís XVI. 
A partir de 13 de novembro, se discutia sobre o julgamento do príncipe, já destronado. O tema principal dos debates era a inviolabilidade do rei. Ou seja, se era possível ou não julgá-lo. 

Deputado, Luís XVI deve ser julgado, ainda que tenha sido deposto do cargo de rei de vossa França?"
visible_characters = -1
percent_visible = 1.0
meta_underlined = true
tab_size = 4
text = "Após os eventos de agosto, foram descobertas correspondências de Luís XVI com outros príncipes europeus. A trajetória revolucionária francesa assustava aqueles que permaneciam sob o modelo absolutista de governo, que já mostrava sinais de enfraquecimento. 
Em um relatório da Assembléia Legislativa, o rei francês fora acusado de traição e de tentar abafar a Revolução. Mais tarde, descobrira-se também os planos da Corte de fortalecer os poderes constitucionais do rei, de restaurar o Antigo Regime e a aristocracia, bem como outros arranjos políticos visando a volta do poder político de Luís XVI. 
A partir de 13 de novembro, se discutia sobre o julgamento do príncipe, já destronado. O tema principal dos debates era a inviolabilidade do rei. Ou seja, se era possível ou não julgá-lo. 

Deputado, Luís XVI deve ser julgado, ainda que tenha sido deposto do cargo de rei de vossa França?"
scroll_active = true
scroll_following = false
selection_enabled = false
override_selected_font_color = false
_sections_unfolded = [ "BBCode", "Material", "Visibility", "custom_colors", "custom_styles" ]

[connection signal="pressed" from="btn_menu" to="." method="_on_btn_menu_pressed"]

[connection signal="pressed" from="next" to="." method="_on_next_pressed"]


